<?xml version="1.0" encoding="iso-8859-1"?>
<!-- Generator: Adobe Illustrator 19.0.0, SVG Export Plug-In . SVG Version: 6.00 Build 0)  -->
<svg xmlns="http://www.w3.org/2000/svg" xmlns:xlink="http://www.w3.org/1999/xlink" version="1.1" id="Capa_1" x="0px" y="0px" viewBox="0 0 320 320" style="enable-background:new 0 0 320 320;" xml:space="preserve" width="512px" height="512px">
<path d="M112,0H16C7.168,0,0,7.168,0,16v288c0,8.832,7.168,16,16,16h96c8.832,0,16-7.168,16-16V16C128,7.168,120.832,0,112,0z" fill="#FFFFFF"/>
<path d="M304,0h-96c-8.832,0-16,7.168-16,16v288c0,8.832,7.168,16,16,16h96c8.832,0,16-7.168,16-16V16C320,7.168,312.832,0,304,0z" fill="#FFFFFF"/>
<g>
</g>
<g>
</g>
<g>
</g>
<g>
</g>
<g>
</g>
<g>
</g>
<g>
</g>
<g>
</g>
<g>
</g>
<g>
</g>
<g>
</g>
<g>
</g>
<g>
</g>
<g>
</g>
<g>
</g>
</svg>
